<svg width="90" height="100" viewBox="0 0 90 100" fill="none" xmlns="http://www.w3.org/2000/svg">
<path d="M53.17 35.4H16.25C15.41 35.4 14.73 34.72 14.73 33.88C14.73 33.04 15.41 32.36 16.25 32.36H53.17C54.01 32.36 54.69 33.04 54.69 33.88C54.69 34.72 54.01 35.4 53.17 35.4Z" fill="#3B5998"/>
<path d="M38.62 48.65H16.25C15.41 48.65 14.73 47.97 14.73 47.13C14.73 46.29 15.41 45.61 16.25 45.61H38.62C39.46 45.61 40.14 46.29 40.14 47.13C40.14 47.97 39.46 48.65 38.62 48.65Z" fill="#3B5998"/>
<path d="M17.12 26.88H7.78001C6.94001 26.88 6.26001 26.2 6.26001 25.36C6.26001 24.52 6.94001 23.84 7.78001 23.84H17.04V20.46C17.04 19.62 17.72 18.94 18.56 18.94C19.4 18.94 20.08 19.62 20.08 20.46V23.93C20.06 25.56 18.75 26.88 17.12 26.88Z" fill="#3B5998"/>
<path d="M53.17 42.03H16.25C15.41 42.03 14.73 41.35 14.73 40.51C14.73 39.67 15.41 38.99 16.25 38.99H53.17C54.01 38.99 54.69 39.67 54.69 40.51C54.68 41.35 54.01 42.03 53.17 42.03Z" fill="#3B5998"/>
<path d="M67.91 45.75C67.07 45.75 66.39 45.07 66.39 44.23V15.05C66.39 12.61 64.4 10.62 61.96 10.62H46.83C45.99 10.62 45.31 9.93999 45.31 9.09999C45.31 8.25999 45.99 7.57999 46.83 7.57999H61.96C66.07 7.57999 69.42 10.93 69.42 15.04V44.22C69.42 45.07 68.74 45.75 67.91 45.75Z" fill="#3B5998"/>
<path d="M59.04 100H10.38C4.66 100 0 95.34 0 89.62V15.05C0 10.94 3.35 7.59 7.46 7.59H22.59C23.43 7.59 24.11 8.27 24.11 9.11C24.11 9.95 23.43 10.63 22.59 10.63H7.46C5.02 10.63 3.03 12.62 3.03 15.06V89.62C3.03 93.67 6.33 96.97 10.38 96.97H59.04C62.41 96.97 65.31 94.72 66.15 91.48V80.45C66.15 79.61 66.83 78.93 67.67 78.93C68.51 78.93 69.19 79.61 69.19 80.45V91.67C69.19 91.79 69.18 91.91 69.15 92.02C68.03 96.72 63.87 100 59.04 100Z" fill="#3B5998"/>
<path d="M44.44 19.01H24.98C22.83 19.01 21.08 17.26 21.08 15.11V7.76C21.08 5.61 22.83 3.86 24.98 3.86H27.73C28.04 1.68 29.92 0 32.18 0H37.24C39.5 0 41.38 1.68 41.69 3.86H44.44C46.59 3.86 48.34 5.61 48.34 7.76V15.11C48.35 17.26 46.6 19.01 44.44 19.01ZM24.98 6.89C24.51 6.89 24.11 7.29 24.11 7.76V15.11C24.11 15.58 24.51 15.98 24.98 15.98H44.45C44.92 15.98 45.32 15.58 45.32 15.11V7.76C45.32 7.29 44.92 6.89 44.45 6.89H40.23C39.39 6.89 38.71 6.21 38.71 5.37V4.5C38.71 3.69 38.05 3.03 37.24 3.03H32.18C31.37 3.03 30.72 3.69 30.72 4.49V5.37C30.72 6.21 30.04 6.89 29.2 6.89H24.98Z" fill="#3B5998"/>
<path d="M39.67 13.5H29.75C28.91 13.5 28.23 12.82 28.23 11.98C28.23 11.14 28.91 10.46 29.75 10.46H39.67C40.51 10.46 41.19 11.14 41.19 11.98C41.18 12.82 40.51 13.5 39.67 13.5Z" fill="#3B5998"/>
<path d="M62.4 51.05C61.56 51.05 60.88 50.37 60.88 49.53V16.13H46.83C45.99 16.13 45.31 15.45 45.31 14.61C45.31 13.77 46 13.1 46.83 13.1H61.96C63.04 13.1 63.91 13.98 63.91 15.05V49.53C63.91 50.37 63.23 51.05 62.4 51.05Z" fill="#3B5998"/>
<path d="M38.62 63.28H23.6C22.76 63.28 22.08 62.6 22.08 61.76C22.08 60.92 22.76 60.24 23.6 60.24H38.62C39.46 60.24 40.14 60.92 40.14 61.76C40.14 62.6 39.46 63.28 38.62 63.28Z" fill="#3B5998"/>
<path d="M18.04 63.28H16.25C15.41 63.28 14.73 62.6 14.73 61.76C14.73 60.92 15.41 60.24 16.25 60.24H18.04C18.88 60.24 19.56 60.92 19.56 61.76C19.56 62.6 18.88 63.28 18.04 63.28Z" fill="#3B5998"/>
<path d="M38.29 78.95H23.6C22.76 78.95 22.08 78.27 22.08 77.43C22.08 76.59 22.76 75.91 23.6 75.91H38.29C39.13 75.91 39.81 76.59 39.81 77.43C39.81 78.28 39.13 78.95 38.29 78.95Z" fill="#3B5998"/>
<path d="M17.74 78.95H16.25C15.41 78.95 14.73 78.27 14.73 77.43C14.73 76.59 15.41 75.91 16.25 75.91H17.74C18.58 75.91 19.26 76.59 19.26 77.43C19.26 78.28 18.58 78.95 17.74 78.95Z" fill="#3B5998"/>
<path d="M38.62 71.12H23.7C22.86 71.12 22.18 70.44 22.18 69.6C22.18 68.76 22.86 68.08 23.7 68.08H38.62C39.46 68.08 40.14 68.76 40.14 69.6C40.14 70.44 39.46 71.12 38.62 71.12Z" fill="#3B5998"/>
<path d="M17.64 71.12H16.25C15.41 71.12 14.73 70.44 14.73 69.6C14.73 68.76 15.41 68.08 16.25 68.08H17.64C18.48 68.08 19.16 68.76 19.16 69.6C19.16 70.44 18.48 71.12 17.64 71.12Z" fill="#3B5998"/>
<path d="M42.66 89.39C42.27 89.39 41.89 89.24 41.6 88.96C41.27 88.64 41.1 88.17 41.15 87.71L41.98 80.08C42.31 77.01 43.7 74.12 45.88 71.93L75.77 42.04C76.47 41.34 77.39 40.96 78.38 40.96C79.37 40.96 80.29 41.34 80.99 42.04L88.18 49.23C89.62 50.67 89.62 53.01 88.18 54.45L58.14 84.48C56.06 86.56 53.31 87.93 50.39 88.33L42.86 89.37C42.8 89.39 42.73 89.39 42.66 89.39ZM78.37 44C78.27 44 78.07 44.03 77.9 44.19L48.02 74.08C46.32 75.78 45.25 78.03 44.99 80.41L44.37 86.11L49.98 85.33C52.24 85.02 54.38 83.95 56 82.34L86.03 52.31C86.29 52.05 86.29 51.63 86.03 51.37L78.84 44.18C78.67 44.02 78.48 44 78.37 44Z" fill="#3B5998"/>
<path d="M57.47 84.53C57.08 84.53 56.69 84.38 56.4 84.09L46.13 73.82C45.54 73.23 45.54 72.27 46.13 71.68C46.72 71.09 47.68 71.09 48.27 71.68L58.54 81.95C59.13 82.54 59.13 83.5 58.54 84.09C58.24 84.38 57.86 84.53 57.47 84.53Z" fill="#3B5998"/>
<path d="M74.36 74.62C73.97 74.62 73.58 74.47 73.29 74.18C72.7 73.59 72.7 72.63 73.29 72.04L83.89 61.44C84.33 61 84.33 60.28 83.89 59.84L72.01 47.95C71.42 47.36 71.42 46.4 72.01 45.81C72.6 45.22 73.56 45.22 74.15 45.81L86.03 57.69C87.65 59.31 87.65 61.96 86.03 63.58L75.43 74.18C75.14 74.47 74.75 74.62 74.36 74.62Z" fill="#3B5998"/>
<path d="M85.32 49.81C84.93 49.81 84.54 49.66 84.25 49.37C83.66 48.78 83.66 47.82 84.25 47.23L86.45 45.03L85.08 43.66L82.88 45.86C82.29 46.45 81.33 46.45 80.74 45.86C80.15 45.27 80.15 44.31 80.74 43.72L83.25 41.21C84.23 40.23 85.93 40.23 86.9 41.21L88.9 43.21C89.39 43.7 89.66 44.35 89.66 45.04C89.66 45.73 89.39 46.38 88.9 46.87L86.39 49.38C86.09 49.66 85.71 49.81 85.32 49.81Z" fill="#3B5998"/>
<path d="M59.04 94.49H10.38C7.69001 94.49 5.51001 92.3 5.51001 89.62V26.76C5.51001 25.46 6.02001 24.23 6.94001 23.31L15.72 14.53C16.64 13.61 17.86 13.1 19.17 13.1H22.59C23.43 13.1 24.11 13.78 24.11 14.62C24.11 15.46 23.43 16.14 22.59 16.14H19.17C18.68 16.14 18.21 16.33 17.87 16.68L9.09001 25.46C8.74001 25.81 8.55001 26.27 8.55001 26.76V89.62C8.55001 90.64 9.38001 91.46 10.39 91.46H59.05C60.07 91.46 60.89 90.63 60.89 89.62L60.91 84.89C60.91 84.06 61.59 83.38 62.43 83.38H62.44C63.28 83.38 63.95 84.07 63.95 84.9L63.93 89.61C63.91 92.3 61.73 94.49 59.04 94.49Z" fill="#3B5998"/>
</svg>
